<svg width="24" height="24" viewBox="0 0 24 24" fill="none" xmlns="http://www.w3.org/2000/svg">
<circle cx="12" cy="12" r="10" fill="black"/>
<path d="M7 13.5714L8.11114 12.4286L11.4446 15.8571L10.3334 17L7 13.5714Z" fill="white"/>
<path d="M10.3334 17L9.22204 15.8571L15.8889 9L17 10.1429L10.3334 17Z" fill="white"/>
</svg>
